TASKS|ENDDATE
Code with python|2030-10-04 00:50:00
Code with python|2030-10-04 01:50:27
Code with golang|2030-10-04 02:50:27
Code with golang|2030-10-04 03:50:27
Code with golang|2030-10-04 04:50:27
Code with golang|2030-10-04 05:50:27
Call my friends|2030-10-04 06:50:27
Listen music|2030-10-04 07:50:27
Help friends with software development|2030-10-04 08:50:27
Eat|2030-10-04 09:50:27
Drink coffee |2030-10-04 10:50:27
Code with python|2030-10-04 11:50:27
Code with python|2030-10-04 12:50:27
Review the tasks work|2030-10-04 13:50:27
Review Planning|2030-10-04 14:50:27
sleep|2030-10-01 15:50:27
sleep|2030-10-01 16:50:27
Search a new Girlfriend|2030-10-01 17:50:27
Code with golang|2030-10-01 18:50:27
Read about new software development topics|2030-10-01 19:50:27
Code with golang|2030-10-01 20:50:27
Code with golang|2030-10-01 21:50:27
Review the tasks work|2030-10-01 22:50:27
Read a new book|2030-10-01 23:50:27